<?xml version="1.0" standalone="no"?>
<!DOCTYPE svg PUBLIC "-//W3C//DTD SVG 20010904//EN"
 "http://www.w3.org/TR/2001/REC-SVG-20010904/DTD/svg10.dtd">
<svg version="1.0" xmlns="http://www.w3.org/2000/svg"
 width="700.000000pt" height="700.000000pt" viewBox="0 0 700.000000 700.000000"
 preserveAspectRatio="xMidYMid meet">
<metadata>
Created by potrace 1.14, written by Peter Selinger 2001-2017
</metadata>
<g transform="translate(0.000000,700.000000) scale(0.100000,-0.100000)"
fill="#000000" stroke="none">
<path d="M996 5571 c-2 -3 -3 -107 -2 -231 l1 -225 175 -2 c96 -1 182 -2 191
-2 12 -1 19 -15 25 -48 4 -27 8 -50 9 -53 0 -3 5 -30 9 -60 4 -30 10 -64 12
-75 2 -11 6 -38 9 -60 3 -22 10 -67 16 -100 6 -33 12 -71 14 -85 7 -47 55
-345 64 -395 6 -27 13 -70 16 -95 9 -63 10 -69 49 -310 37 -225 75 -462 126
-777 17 -104 51 -309 75 -458 41 -253 53 -331 60 -380 2 -11 6 -33 9 -50 2
-16 8 -50 11 -75 4 -25 8 -49 9 -55 2 -5 6 -32 10 -60 25 -162 49 -281 62
-306 45 -89 167 -151 344 -178 119 -18 202 -27 340 -36 58 -4 116 -8 129 -10
150 -24 1236 -24 1491 0 25 2 83 6 130 10 47 3 103 8 125 10 22 2 65 7 95 10
250 26 401 90 454 194 13 24 34 128 51 246 3 22 10 63 15 90 5 28 12 66 14 85
3 19 8 46 10 60 3 14 7 43 11 65 7 49 23 151 30 185 2 14 11 70 20 125 18 113
18 113 40 250 9 55 18 111 20 125 12 73 87 537 99 610 17 96 25 149 32 200 3
19 13 85 24 145 10 61 21 126 24 145 3 19 12 80 21 135 9 55 18 111 20 125 2
14 11 63 19 110 8 47 17 105 21 130 3 25 10 72 16 105 6 33 12 71 14 84 2 13
19 113 36 222 l32 199 46 1 c25 1 111 1 191 1 l146 0 -1 231 0 232 -2503 1
c-1376 1 -2504 -1 -2506 -5z m1414 -655 c32 -10 79 -54 91 -84 5 -12 20 -93
34 -180 14 -86 27 -166 29 -177 2 -11 9 -54 16 -95 6 -41 14 -86 16 -100 2
-14 9 -54 14 -90 12 -80 14 -92 50 -310 16 -96 31 -191 34 -210 3 -19 8 -46
10 -60 2 -14 8 -47 12 -75 4 -27 8 -54 10 -60 1 -5 5 -30 9 -55 3 -25 21 -137
40 -250 19 -113 37 -223 40 -245 4 -22 11 -69 17 -105 6 -36 12 -74 13 -85 2
-11 17 -103 33 -205 17 -102 34 -205 37 -230 4 -24 8 -47 10 -50 6 -9 19 -114
18 -147 -1 -49 -21 -89 -62 -120 -34 -26 -43 -28 -148 -31 -88 -3 -119 0 -146
13 -53 25 -83 77 -97 170 -7 44 -14 89 -16 100 -2 11 -10 63 -19 115 -8 52
-17 106 -20 120 -3 14 -7 43 -10 65 -3 22 -7 51 -10 65 -2 13 -7 42 -10 65 -5
31 -51 315 -80 485 -2 14 -7 43 -9 65 -3 22 -8 49 -10 60 -2 11 -7 40 -10 65
-3 25 -8 56 -11 70 -5 25 -28 169 -40 245 -3 22 -7 47 -10 55 -4 15 -9 45 -25
164 -6 37 -12 71 -14 75 -2 3 -7 33 -10 66 -4 33 -9 69 -12 80 -5 27 -9 50
-44 270 -39 237 -38 231 -45 285 -4 25 -10 63 -14 85 -14 76 25 151 94 179 33
14 205 15 245 2z"/>
<path d="M997 4510 c-105 -40 -191 -122 -228 -218 -28 -74 -29 -196 -2 -264
43 -110 130 -193 238 -227 43 -13 94 -19 176 -20 l116 -2 -8 48 c-4 26 -10 64
-14 83 -13 76 -25 147 -30 180 -3 19 -10 58 -15 85 -5 28 -12 68 -14 90 -3 22
-8 51 -11 65 -3 14 -10 54 -16 90 -6 36 -12 72 -14 80 -2 8 -4 19 -4 23 -2 14
-127 5 -174 -13z"/>
<path d="M5825 4494 c-3 -22 -10 -59 -15 -84 -5 -25 -21 -115 -35 -200 -33
-195 -32 -194 -44 -257 -6 -29 -13 -74 -17 -100 -3 -26 -7 -52 -8 -58 -2 -14
200 -18 253 -5 202 51 327 239 290 438 -31 165 -173 289 -344 300 l-74 5 -6
-39z"/>
</g>
</svg>
